﻿<?xml version="1.0" encoding="UTF-8"?>
<TestRun id="a9ab19fa-b0e8-452f-863a-c019389d823a" name="Arpan@ARPAN-PC 2012-12-18 12:06:33" runUser="Arpan-PC\Arpan" xmlns="http://microsoft.com/schemas/VisualStudio/TeamTest/2010">
  <TestSettings name="Local" id="3c6235da-b036-4a3c-a730-6de02c6f0a87">
    <Description>These are default test settings for a local test run.</Description>
    <Deployment enabled="false" runDeploymentRoot="Arpan_ARPAN-PC 2012-12-18 12_06_33">
      <DeploymentItem filename="C:\Dev\SOCIALDEALER\SourceCodeMain\SOCIALDEALER.Publish\DataLayerInsights\bin\Debug\DataLayerInsights.dll" />
      <DeploymentItem filename="C:\Dev\SOCIALDEALER\SourceCodeMain\SOCIALDEALER.Publish\BusinessLogic\bin\Debug\BusinessLogic.dll" />
      <DeploymentItem filename="C:\Dev\SOCIALDEALER\SourceCodeMain\SOCIALDEALER.Publish\DataLayer\bin\Debug\DataLayer.dll" />
      <DeploymentItem filename="C:\Dev\SOCIALDEALER\SourceCodeMain\SOCIALDEALER.Publish\BusinessEntities\bin\Debug\BusinessEntities.dll" />
    </Deployment>
    <Execution>
      <TestTypeSpecific />
      <AgentRule name="Execution Agents">
      </AgentRule>
    </Execution>
  </TestSettings>
  <Times creation="2012-12-18T12:06:33.7215680-06:00" queuing="2012-12-18T12:06:35.0896463-06:00" start="2012-12-18T12:06:35.2806572-06:00" finish="2012-12-18T12:06:41.1709941-06:00" />
  <ResultSummary outcome="Completed">
    <Counters total="1" executed="1" passed="1" error="0" failed="0" timeout="0" aborted="0" inconclusive="0" passedButRunAborted="0" notRunnable="0" notExecuted="0" disconnected="0" warning="0" completed="0" inProgress="0" pending="0" />
  </ResultSummary>
  <TestDefinitions>
    <UnitTest name="GooglePlusGetRefreshToken_Test" storage="c:\dev\socialdealer\sourcecodemain\socialdealer.publish\socialdealer.publish.tests\bin\debug\socialdealer.publish.tests.dll" id="512abaa7-e61d-27c4-196b-a9580ade2abc">
      <Execution id="55c5458e-a619-49e4-bab2-3b2c795a5a64" />
      <TestMethod codeBase="C:/Dev/SOCIALDEALER/SourceCodeMain/SOCIALDEALER.Publish/SOCIALDEALER.Publish.Tests/bin/Debug/SOCIALDEALER.Publish.Tests.DLL" adapterTypeName="Microsoft.VisualStudio.TestTools.TestTypes.Unit.UnitTestAdapter, Microsoft.VisualStudio.QualityTools.Tips.UnitTest.Adapter, Version=10.0.0.0, Culture=neutral, PublicKeyToken=b03f5f7f11d50a3a" className="SOCIALDEALER.Publish.Tests.BusinessLogic.GooglePlusTests, SOCIALDEALER.Publish.Tests, Version=1.0.0.0, Culture=neutral, PublicKeyToken=null" name="GooglePlusGetRefreshToken_Test" />
    </UnitTest>
  </TestDefinitions>
  <TestLists>
    <TestList name="Results Not in a List" id="8c84fa94-04c1-424b-9868-57a2d4851a1d" />
    <TestList name="All Loaded Results" id="19431567-8539-422a-85d7-44ee4e166bda" />
  </TestLists>
  <TestEntries>
    <TestEntry testId="512abaa7-e61d-27c4-196b-a9580ade2abc" executionId="55c5458e-a619-49e4-bab2-3b2c795a5a64" testListId="8c84fa94-04c1-424b-9868-57a2d4851a1d" />
  </TestEntries>
  <Results>
    <UnitTestResult executionId="55c5458e-a619-49e4-bab2-3b2c795a5a64" testId="512abaa7-e61d-27c4-196b-a9580ade2abc" testName="GooglePlusGetRefreshToken_Test" computerName="ARPAN-PC" duration="00:00:03.8092796" startTime="2012-12-18T12:06:35.4836688-06:00" endTime="2012-12-18T12:06:41.0179853-06:00" testType="13cdc9d9-ddb5-4fa4-a97d-d965ccfc6d4b" outcome="Passed" testListId="8c84fa94-04c1-424b-9868-57a2d4851a1d" relativeResultsDirectory="55c5458e-a619-49e4-bab2-3b2c795a5a64">
    </UnitTestResult>
  </Results>
</TestRun>