﻿<?xml version="1.0" encoding="UTF-8"?>
<TestRun id="211cb94e-26d7-4cf5-96eb-f3d8494b3d26" name="Arpan@ARPAN-PC 2012-12-18 11:14:24" runUser="Arpan-PC\Arpan" xmlns="http://microsoft.com/schemas/VisualStudio/TeamTest/2010">
  <TestSettings name="Local" id="3c6235da-b036-4a3c-a730-6de02c6f0a87">
    <Description>These are default test settings for a local test run.</Description>
    <Deployment enabled="false" runDeploymentRoot="Arpan_ARPAN-PC 2012-12-18 11_14_24">
      <DeploymentItem filename="C:\Dev\SOCIALDEALER\SourceCodeMain\SOCIALDEALER.Publish\DataLayerInsights\bin\Debug\DataLayerInsights.dll" />
      <DeploymentItem filename="C:\Dev\SOCIALDEALER\SourceCodeMain\SOCIALDEALER.Publish\BusinessLogic\bin\Debug\BusinessLogic.dll" />
      <DeploymentItem filename="C:\Dev\SOCIALDEALER\SourceCodeMain\SOCIALDEALER.Publish\DataLayer\bin\Debug\DataLayer.dll" />
      <DeploymentItem filename="C:\Dev\SOCIALDEALER\SourceCodeMain\SOCIALDEALER.Publish\BusinessEntities\bin\Debug\BusinessEntities.dll" />
    </Deployment>
    <Execution>
      <TestTypeSpecific />
      <AgentRule name="Execution Agents">
      </AgentRule>
    </Execution>
  </TestSettings>
  <Times creation="2012-12-18T11:14:24.8066043-06:00" queuing="2012-12-18T11:14:26.0106732-06:00" start="2012-12-18T11:14:26.1866832-06:00" finish="2012-12-18T11:48:51.4708107-06:00" />
  <ResultSummary outcome="Error">
    <Counters total="1" executed="1" error="0" failed="0" timeout="0" aborted="1" inconclusive="0" passedButRunAborted="0" notRunnable="0" notExecuted="0" disconnected="0" warning="0" passed="0" completed="0" inProgress="0" pending="0" />
    <RunInfos>
      <RunInfo computerName="ARPAN-PC" outcome="Error" timestamp="2012-12-18T11:48:51.4698107-06:00">
        <Text>Test host process exited unexpectedly.</Text>
      </RunInfo>
    </RunInfos>
  </ResultSummary>
  <TestDefinitions>
    <UnitTest name="GooglePlusGetRefreshToken_Test" storage="c:\dev\socialdealer\sourcecodemain\socialdealer.publish\socialdealer.publish.tests\bin\debug\socialdealer.publish.tests.dll" id="512abaa7-e61d-27c4-196b-a9580ade2abc">
      <Execution id="168bb3bb-fbf4-40a8-9f21-acbb91578b22" />
      <TestMethod codeBase="C:/Dev/SOCIALDEALER/SourceCodeMain/SOCIALDEALER.Publish/SOCIALDEALER.Publish.Tests/bin/Debug/SOCIALDEALER.Publish.Tests.DLL" adapterTypeName="Microsoft.VisualStudio.TestTools.TestTypes.Unit.UnitTestAdapter, Microsoft.VisualStudio.QualityTools.Tips.UnitTest.Adapter, Version=10.0.0.0, Culture=neutral, PublicKeyToken=b03f5f7f11d50a3a" className="SOCIALDEALER.Publish.Tests.BusinessLogic.GooglePlusTests, SOCIALDEALER.Publish.Tests, Version=1.0.0.0, Culture=neutral, PublicKeyToken=null" name="GooglePlusGetRefreshToken_Test" />
    </UnitTest>
  </TestDefinitions>
  <TestLists>
    <TestList name="Results Not in a List" id="8c84fa94-04c1-424b-9868-57a2d4851a1d" />
    <TestList name="All Loaded Results" id="19431567-8539-422a-85d7-44ee4e166bda" />
  </TestLists>
  <TestEntries>
    <TestEntry testId="512abaa7-e61d-27c4-196b-a9580ade2abc" executionId="168bb3bb-fbf4-40a8-9f21-acbb91578b22" testListId="8c84fa94-04c1-424b-9868-57a2d4851a1d" />
  </TestEntries>
  <Results>
    <UnitTestResult executionId="168bb3bb-fbf4-40a8-9f21-acbb91578b22" testId="512abaa7-e61d-27c4-196b-a9580ade2abc" testName="GooglePlusGetRefreshToken_Test" computerName="ARPAN-PC" duration="00:34:25.0571145" startTime="2012-12-18T11:14:26.4136962-06:00" endTime="2012-12-18T11:48:51.4708107-06:00" testType="13cdc9d9-ddb5-4fa4-a97d-d965ccfc6d4b" outcome="Aborted" testListId="8c84fa94-04c1-424b-9868-57a2d4851a1d" relativeResultsDirectory="168bb3bb-fbf4-40a8-9f21-acbb91578b22">
    </UnitTestResult>
  </Results>
</TestRun>